## Interface: 70200
## Title: Moncaí's |cff00ff00Equipment Compare|r
## Notes: Replacement for Equip Compare, by Moncaí
## Author: Moncaí
## Version: 7.2.0
## X-Website: http://www.curse.com/addons/wow/moncaicompare
## URL: http://www.curse.com/addons/wow/moncaicompare
## RequiredDeps:
## OptionalDeps: 
!MoncaiCompare.lua
##EncounterJournal.lua
##LootJournal.lua
