## Interface: 80200
## Title: Lib: Diminishing Returns Database
## Notes: List of abilities that have diminishing returns and its categories.
## Notes-ruRU: Список способностей с убывающей отдачей и их категорий.
## Version: cd18b2d
## X-Category: Library
## X-Curse-Project-ID: 315757


DRList-1.0.xml
