## Interface: 80200
## Title: Details!: Encounter Breakdown (plugin)
## Notes: Show detailed information about a boss encounter. Also provide damage per phase, graphic charts, easy weakauras creation.
## RequiredDeps: Details
## OptionalDeps: Ace3
## SavedVariablesPerCharacter: EncounterDetailsDB


#@no-lib-strip@
embeds.xml
#@end-no-lib-strip@

enUS.lua
ptBR.lua
frames.lua

Details_EncounterDetails.lua
