## Interface: 11302
## Title: tullaCC
## Notes: Adds text to cooldowns
## Author: Tuller
## Version: @version@
## SavedVariables: tullaCCDB
config.lua
timer.lua
display.lua
cooldown.lua
main.lua
