## Interface: 11302
## Author: Peter Getov
## Version: 2.1
## Title: |cff00aeffCharacterStatsClassic|r
## Notes: Advanced Character Stats
## DefaultState:  enabled
## SavedVariables: CharacterStatsClassicDB
## SavedVariablesPerCharacter: CharacterStatsClassicCharacterDB

CharacterStatsClassicUI.lua
CharacterStatsClassicCore.lua
CharacterStatsClassicUtils.lua
ClassUtils.lua