## Interface: 80200
## Title: Details!: Tiny Threat (plugin)
## Notes: Threat meter plugin, show threat for group members in the window. Select it from the Plugin menu in the Orange Cogwheel.
## RequiredDeps: Details
## OptionalDeps: Ace3

#@no-lib-strip@
embeds.xml
#@end-no-lib-strip@

enUS.lua
ptBR.lua

Details_TinyThreat.lua
