## Interface: 11302
## Version: v1.7.1

## Title: Plexus
## Notes: A compact plexus of party/raid unit frames.
## Notes-deDE: Ein kompakter Gitter von Gruppen- und Schlachtzugsfenstern.
## Notes-esES: Una cuadrícula compacta de marcos de unidades para tu grupo o banda.
## Notes-esMX: Una cuadrícula compacta de marcos de unidades para su grupo o banda.
## Notes-frFR: Une grille compacte de fenêtres des unités de votre groupe ou raid.
## Notes-itIT: Una griglia compatta di riquadri delle unità nel tuo gruppo o incursione.
## Notes-ptBR: Uma grade compacta de quadros das unidades do grupo ou banda.
## Notes-zhCN: 紧凑方格队伍/团队框架。
## Notes-zhTW: 緊湊方格隊伍/團隊框架。

## Author: Doadin, Phanx, Pastamancer, Maia
## X-Credits: Greltok, Jerry, jlam
## X-License: All Rights Reserved
## X-Website: https://wow.curseforge.com/projects/plexus/
## X-Curse-Project-ID: 338710

## OptionalDeps: Clique, Ace3, LibDBIcon-1.0, LibDualSpec-1.0, LibResInfo-1.0, LibSharedMedia-3.0, AceGUI-3.0-SharedMediaWidgets, UTF8
## SavedVariables: PlexusDB

Libs\LibStub\LibStub.lua
Libs\CallbackHandler-1.0\CallbackHandler-1.0.lua
Libs\AceAddon-3.0\AceAddon-3.0.lua
Libs\AceBucket-3.0\AceBucket-3.0.lua
Libs\AceGUI-3.0\AceGUI-3.0.xml
Libs\AceConfigRegistry-3.0\AceConfigRegistry-3.0.lua
Libs\AceConfigDialog-3.0\AceConfigDialog-3.0.lua
Libs\AceConsole-3.0\AceConsole-3.0.lua
Libs\AceConfigCmd-3.0\AceConfigCmd-3.0.lua
Libs\AceDB-3.0\AceDB-3.0.lua
Libs\AceDBOptions-3.0\AceDBOptions-3.0.lua
Libs\AceEvent-3.0\AceEvent-3.0.lua
Libs\AceHook-3.0\AceHook-3.0.lua
Libs\AceTimer-3.0\AceTimer-3.0.lua
Libs\LibDataBroker-1.1\LibDataBroker-1.1.lua
Libs\LibDBIcon-1.0\LibDBIcon-1.0.lua
Libs\LibClassicHealComm-1.0\ChatThrottleLib.lua
Libs\LibClassicHealComm-1.0\LibClassicHealComm-1.0.lua
Libs\LibResInfo-1.0\LibResInfo-1.0.lua
Libs\LibSharedMedia-3.0\LibSharedMedia-3.0.lua
Libs\AceGUI-3.0-SharedMediaWidgets\widget.xml
Libs\UTF8\utf8.lua

Locales\Locale-de.lua
Locales\Locale-es.lua
Locales\Locale-fr.lua
Locales\Locale-it.lua
Locales\Locale-pt.lua
Locales\Locale-ru.lua
Locales\Locale-ko.lua
Locales\Locale-zhCN.lua
Locales\Locale-zhTW.lua

Core.lua
Roster.lua
Layout.lua
Layouts.lua
Frame.lua
Status.lua
Help.lua

Indicators\Alpha.lua
Indicators\Bar.lua
Indicators\Border.lua
Indicators\Corner.lua
Indicators\HealingBar.lua
Indicators\Icon.lua
Indicators\Text.lua

Statuses\Auras.lua
Statuses\Group.lua
Statuses\Heals.lua
Statuses\Health.lua
Statuses\Mana.lua
Statuses\Mouseover.lua
Statuses\Name.lua
Statuses\RaidIcon.lua
Statuses\Range.lua
Statuses\ReadyCheck.lua
Statuses\ResourceBar.lua
Statuses\Resurrect.lua
Statuses\Role.lua
Statuses\Target.lua
Statuses\Vehicle.lua
